<svg xmlns="http://www.w3.org/2000/svg" width="64" height="64">
    <path data-name="제외 1" d="M-6265.5-5056.5a31.8 31.8 0 0 1-12.456-2.515 31.883 31.883 0 0 1-10.171-6.858 31.886 31.886 0 0 1-6.858-10.171 31.809 31.809 0 0 1-2.515-12.457 31.8 31.8 0 0 1 2.515-12.456 31.886 31.886 0 0 1 6.858-10.171 31.889 31.889 0 0 1 10.171-6.858 31.8 31.8 0 0 1 12.456-2.515 31.809 31.809 0 0 1 12.457 2.515 31.882 31.882 0 0 1 10.171 6.858 31.87 31.87 0 0 1 6.858 10.171 31.8 31.8 0 0 1 2.515 12.456 31.809 31.809 0 0 1-2.515 12.457 31.87 31.87 0 0 1-6.858 10.171 31.87 31.87 0 0 1-10.171 6.858 31.809 31.809 0 0 1-12.457 2.515zm0-28.036 11.211 11.211a2.785 2.785 0 0 0 1.982.822 2.793 2.793 0 0 0 1.985-.822 2.79 2.79 0 0 0 .822-1.983 2.79 2.79 0 0 0-.822-1.983l-11.211-11.212 11.211-11.21a2.808 2.808 0 0 0 0-3.965 2.787 2.787 0 0 0-1.985-.821 2.784 2.784 0 0 0-1.983.821l-11.21 11.21-11.21-11.21a2.784 2.784 0 0 0-1.983-.821 2.787 2.787 0 0 0-1.984.821 2.781 2.781 0 0 0-.822 1.982 2.781 2.781 0 0 0 .822 1.983l11.212 11.21-11.212 11.212a2.786 2.786 0 0 0-.822 1.983 2.786 2.786 0 0 0 .822 1.983 2.814 2.814 0 0 0 1.983.795 2.817 2.817 0 0 0 1.984-.795l11.209-11.211z" transform="translate(6297.5 5120.5)" style="fill:#fff;opacity:.75"/>
</svg>
